graph TD
classDef dev fill:#F2ECE8,stroke:#333,stroke-width:1px;
classDef stage fill:#99C4C8,color:#fff,stroke:#333,stroke-width:1px;
classDef prod fill:#C3E5E9,stroke:#333,stroke-width:1px;
classDef anthos fill:#E7ECEF,stroke:#333,stroke-width:1px;

subgraph Stage
  subgraph stagegcp[GCP]
    stagegcpvpc[VPC] --> stagegcpgke1[GKE1]
  end
  subgraph stageaws[AWS]
    stageawsvpc[VPC] --> stageawseks1[EKS1]
  end
  subgraph stageanthos[Anthos]
    stagegcpgke1 -.-> stageasm[ASM]
    stageawseks1 -.-> stageasm
    stageacm[ACM]
  end
end

subgraph Dev
  subgraph devgcp[GCP]
    devgcpvpc[VPC] --> devgcpgke1[GKE1]
    devgcpvpc --> devgcpgke2[GKE2]
  end
  subgraph devanthos[Anthos]
    devgcpgke1 -.-> devasm[ASM]
    devgcpgke2 -.-> devasm
    devacm[ACM]
  end
end

subgraph Gitlab
  subgraph platform-admins-group[platform-admins group]
    acmrepo[config]
    sharedcdrepo[shared-cd]
  end
  subgraph bank-of-anthos-group[bank-of-anthos group]
    boarepo[bank-of-anthos]
  end
end
devacm -.-> acmrepo
stageacm -.-> acmrepo

class Prod,platform-admins-group,bank-of-anthos-group prod;
class Stage stage;
class Dev dev;
